{
    "variants": {
        "facing=east":  { "model": "totemicenemies:totem" },
        "facing=west":  { "model": "totemicenemies:totem", "y": 180, "uvlock": true },
        "facing=south": { "model": "totemicenemies:totem", "y": 90, "uvlock": true },
        "facing=north": { "model": "totemicenemies:totem", "y": 270, "uvlock": true }
	}
}